{
  "page": 1,
  "total_results": 19931,
  "total_pages": 997,
  "results": [
    {
      "vote_count": 1282,
      "id": 383498,
      "video": false,
      "vote_average": 7.9,
      "title": "Deadpool 2",
      "popularity": 497.250634,
      "poster_path": "/to0spRl1CMDvyUbOnbb4fTk3VAd.jpg",
      "original_language": "en",
      "original_title": "Deadpool 2",
      "genre_ids": [
        28,
        35,
        878
      ],
      "backdrop_path": "/3P52oz9HPQWxcwHOwxtyrVV1LKi.jpg",
      "adult": false,
      "overview": "Wisecracking mercenary Deadpool battles the evil and powerful Cable and other bad guys to save a boy's life.",
      "release_date": "2018-05-15"
    },
    {
      "vote_count": 4119,
      "id": 299536,
      "video": false,
      "vote_average": 8.5,
      "title": "Avengers: Infinity War",
      "popularity": 384.562008,
      "poster_path": "/7WsyChQLEftFiDOVTGkv3hFpyyt.jpg",
      "original_language": "en",
      "original_title": "Avengers: Infinity War",
      "genre_ids": [
        12,
        878,
        14,
        28
      ],
      "backdrop_path": "/bOGkgRGdhrBYJSLpXaxhXVstddV.jpg",
      "adult": false,
      "overview": "As the Avengers and their allies have continued to protect the world from threats too large for any one hero to handle, a new danger has emerged from the cosmic shadows: Thanos. A despot of intergalactic infamy, his goal is to collect all six Infinity Stones, artifacts of unimaginable power, and use them to inflict his twisted will on all of reality. Everything the Avengers have fought for has led up to this moment - the fate of Earth and existence itself has never been more uncertain.",
      "release_date": "2018-04-25"
    },
    {
      "vote_count": 1894,
      "id": 337167,
      "video": false,
      "vote_average": 6,
      "title": "Fifty Shades Freed",
      "popularity": 360.830046,
      "poster_path": "/jjPJ4s3DWZZvI4vw8Xfi4Vqa1Q8.jpg",
      "original_language": "en",
      "original_title": "Fifty Shades Freed",
      "genre_ids": [
        18,
        10749
      ],
      "backdrop_path": "/9ywA15OAiwjSTvg3cBs9B7kOCBF.jpg",
      "adult": false,
      "overview": "Believing they have left behind shadowy figures from their past, newlyweds Christian and Ana fully embrace an inextricable connection and shared life of luxury. But just as she steps into her role as Mrs. Grey and he relaxes into an unfamiliar stability, new threats could jeopardize their happy ending before it even begins.",
      "release_date": "2018-02-07"
    },
    {
      "vote_count": 10,
      "id": 510819,
      "video": false,
      "vote_average": 3.5,
      "title": "Dirty Dead Con Men",
      "popularity": 223.09465,
      "poster_path": "/r70GGoZ5PqqokDDRnVfTN7PPDtJ.jpg",
      "original_language": "en",
      "original_title": "Dirty Dead Con Men",
      "genre_ids": [
        28,
        80,
        18
      ],
      "backdrop_path": "/75RJi3yVZnZtVj4Kn1bYGzkhiEx.jpg",
      "adult": false,
      "overview": "A cool and dangerous neo-noir crime film that revolves around the disturbed lives of two unlikely partners: Mickey Rady, a rogue undercover cop and Kook Packard, a smooth and charismatic con man. Together they rip off those operating outside of the law...for their own personal gain. But things go awry when one heist suck them deep into a city-wide conspiracy...",
      "release_date": "2018-03-30"
    },
    {
      "vote_count": 6445,
      "id": 284053,
      "video": false,
      "vote_average": 7.4,
      "title": "Thor: Ragnarok",
      "popularity": 221.914639,
      "poster_path": "/rzRwTcFvttcN1ZpX2xv4j3tSdJu.jpg",
      "original_language": "en",
      "original_title": "Thor: Ragnarok",
      "genre_ids": [
        28,
        12,
        14,
        878,
        35
      ],
      "backdrop_path": "/kaIfm5ryEOwYg8mLbq8HkPuM1Fo.jpg",
      "adult": false,
      "overview": "Thor is imprisoned on the other side of the universe and finds himself in a race against time to get back to Asgard to stop Ragnarok, the prophecy of destruction to his homeworld and the end of Asgardian civilization, at the hands of an all-powerful new threat, the ruthless Hela.",
      "release_date": "2017-10-25"
    },
    {
      "vote_count": 5604,
      "id": 284054,
      "video": false,
      "vote_average": 7.3,
      "title": "Black Panther",
      "popularity": 193.211603,
      "poster_path": "/uxzzxijgPIY7slzFvMotPv8wjKA.jpg",
      "original_language": "en",
      "original_title": "Black Panther",
      "genre_ids": [
        28,
        12,
        14,
        878
      ],
      "backdrop_path": "/6ELJEzQJ3Y45HczvreC3dg0GV5R.jpg",
      "adult": false,
      "overview": "King T'Challa returns home from America to the reclusive, technologically advanced African nation of Wakanda to serve as his country's new leader. However, T'Challa soon finds that he is challenged for the throne by factions within his own country as well as without. Using powers reserved to Wakandan kings, T'Challa assumes the Black Panther mantel to join with girlfriend Nakia, the queen-mother, his princess-kid sister, members of the Dora Milaje (the Wakandan 'special forces') and an American secret agent, to prevent Wakanda from being dragged into a world war.",
      "release_date": "2018-02-13"
    },
    {
      "vote_count": 357,
      "id": 348350,
      "video": false,
      "vote_average": 6.9,
      "title": "Solo: A Star Wars Story",
      "popularity": 148.830099,
      "poster_path": "/4oD6VEccFkorEBTEDXtpLAaz0Rl.jpg",
      "original_language": "en",
      "original_title": "Solo: A Star Wars Story",
      "genre_ids": [
        28,
        12,
        878
      ],
      "backdrop_path": "/7LZ0K4FsALrt7OeNIGOVLNuKQRU.jpg",
      "adult": false,
      "overview": "Through a series of daring escapades deep within a dark and dangerous criminal underworld, Han Solo meets his mighty future copilot Chewbacca and encounters the notorious gambler Lando Calrissian.",
      "release_date": "2018-05-23"
    },
    {
      "vote_count": 8740,
      "id": 297762,
      "video": false,
      "vote_average": 7.2,
      "title": "Wonder Woman",
      "popularity": 122.109647,
      "poster_path": "/imekS7f1OuHyUP2LAiTEM0zBzUz.jpg",
      "original_language": "en",
      "original_title": "Wonder Woman",
      "genre_ids": [
        28,
        12,
        14,
        10752,
        878
      ],
      "backdrop_path": "/6iUNJZymJBMXXriQyFZfLAKnjO6.jpg",
      "adult": false,
      "overview": "An Amazon princess comes to the world of Man in the grips of the First World War to confront the forces of evil and bring an end to human conflict.",
      "release_date": "2017-05-30"
    },
    {
      "vote_count": 7261,
      "id": 269149,
      "video": false,
      "vote_average": 7.7,
      "title": "Zootopia",
      "popularity": 118.772043,
      "poster_path": "/sM33SANp9z6rXW8Itn7NnG1GOEs.jpg",
      "original_language": "en",
      "original_title": "Zootopia",
      "genre_ids": [
        16,
        12,
        10751,
        35
      ],
      "backdrop_path": "/mhdeE1yShHTaDbJVdWyTlzFvNkr.jpg",
      "adult": false,
      "overview": "Determined to prove herself, Officer Judy Hopps, the first bunny on Zootopia's police force, jumps at the chance to crack her first case - even if it means partnering with scam-artist fox Nick Wilde to solve the mystery.",
      "release_date": "2016-02-11"
    },
    {
      "vote_count": 13195,
      "id": 118340,
      "video": false,
      "vote_average": 7.9,
      "title": "Guardians of the Galaxy",
      "popularity": 107.373997,
      "poster_path": "/y31QB9kn3XSudA15tV7UWQ9XLuW.jpg",
      "original_language": "en",
      "original_title": "Guardians of the Galaxy",
      "genre_ids": [
        28,
        878,
        12
      ],
      "backdrop_path": "/bHarw8xrmQeqf3t8HpuMY7zoK4x.jpg",
      "adult": false,
      "overview": "Light years from Earth, 26 years after being abducted, Peter Quill finds himself the prime target of a manhunt after discovering an orb wanted by Ronan the Accuser.",
      "release_date": "2014-07-30"
    },
    {
      "vote_count": 23,
      "id": 499772,
      "video": false,
      "vote_average": 5,
      "title": "Meet Me In St. Gallen",
      "popularity": 101.251023,
      "poster_path": "/kZJEQFk6eiZ9X2x70ve6R1dczus.jpg",
      "original_language": "tl",
      "original_title": "Meet Me In St. Gallen",
      "genre_ids": [
        18,
        10749
      ],
      "backdrop_path": "/7tvwYJPostpjFybjOeygnBHVxrW.jpg",
      "adult": false,
      "overview": "The story of Jesse and Celeste who meets at an unexpected time in their lives. They then realize their names are the same as the characters in the popular break-up romantic comedy, Celeste and Jesse Forever.",
      "release_date": "2018-02-07"
    },
    {
      "vote_count": 5700,
      "id": 119450,
      "video": false,
      "vote_average": 7.2,
      "title": "Dawn of the Planet of the Apes",
      "popularity": 95.200824,
      "poster_path": "/2EUAUIu5lHFlkj5FRryohlH6CRO.jpg",
      "original_language": "en",
      "original_title": "Dawn of the Planet of the Apes",
      "genre_ids": [
        878,
        28,
        18,
        53
      ],
      "backdrop_path": "/t7VSsAbIQS6kpO4ikuCNSiugsSy.jpg",
      "adult": false,
      "overview": "A group of scientists in San Francisco struggle to stay alive in the aftermath of a plague that is wiping out humanity, while Caesar tries to maintain dominance over his community of intelligent apes.",
      "release_date": "2014-06-26"
    },
    {
      "vote_count": 1252,
      "id": 401981,
      "video": false,
      "vote_average": 6.5,
      "title": "Red Sparrow",
      "popularity": 93.446566,
      "poster_path": "/vLCogyfQGxVLDC1gqUdNAIkc29L.jpg",
      "original_language": "en",
      "original_title": "Red Sparrow",
      "genre_ids": [
        9648,
        53
      ],
      "backdrop_path": "/sGzuQYSTwJvLBc2PnuSVLHhuFeh.jpg",
      "adult": false,
      "overview": "Prima ballerina, Dominika Egorova faces a bleak and uncertain future after she suffers an injury that ends her career. She soon turns to Sparrow School, a secret intelligence service that trains exceptional young people to use their minds and bodies as weapons. Dominika emerges as the most dangerous Sparrow after completing the sadistic training process. As she comes to terms with her new abilities, she meets a CIA agent who tries to convince her that he is the only person she can trust.",
      "release_date": "2018-03-01"
    },
    {
      "vote_count": 21,
      "id": 462593,
      "video": false,
      "vote_average": 5.3,
      "title": "What the Waters Left Behind",
      "popularity": 90.704062,
      "poster_path": "/4lJS2NUtcgyJPjOPfFlXcHzHu0D.jpg",
      "original_language": "es",
      "original_title": "Los olvidados",
      "genre_ids": [
        27
      ],
      "backdrop_path": "/ufyPovbgRKlKTWrlzDFgULfgfyi.jpg",
      "adult": false,
      "overview": "Epecuén was one of the most important touristic villages of Argentina. Thousands of people concurred, attracted by the healing properties of its thermal waters. On November 10th 1985, a huge volume of water broke the protecting embankment and the village was submerged under ten meters of salt water. Epecuén disappeared. Thirty years later, the waters receded and the ruins of Epecuén emerged exposing a bleak and deserted landscape. The residents never returned.  The plot revolves around a group of young people that take a trip to the ruins in order to film a documentary about Epecuén. Ignoring the warnings, and after a brief tour, they get stranded in the abandoned village. Contrary to what they thought, they begin to realize that they are really not alone…",
      "release_date": "2017-10-11"
    },
    {
      "vote_count": 8306,
      "id": 321612,
      "video": false,
      "vote_average": 6.8,
      "title": "Beauty and the Beast",
      "popularity": 88.823907,
      "poster_path": "/tWqifoYuwLETmmasnGHO7xBjEtt.jpg",
      "original_language": "en",
      "original_title": "Beauty and the Beast",
      "genre_ids": [
        10751,
        14,
        10749
      ],
      "backdrop_path": "/6aUWe0GSl69wMTSWWexsorMIvwU.jpg",
      "adult": false,
      "overview": "A live-action adaptation of Disney's version of the classic tale of a cursed prince and a beautiful young woman who helps him break the spell.",
      "release_date": "2017-03-16"
    },
    {
      "vote_count": 15122,
      "id": 293660,
      "video": false,
      "vote_average": 7.5,
      "title": "Deadpool",
      "popularity": 88.645264,
      "poster_path": "/inVq3FRqcYIRl2la8iZikYYxFNR.jpg",
      "original_language": "en",
      "original_title": "Deadpool",
      "genre_ids": [
        28,
        12,
        35
      ],
      "backdrop_path": "/n1y094tVDFATSzkTnFxoGZ1qNsG.jpg",
      "adult": false,
      "overview": "Deadpool tells the origin story of former Special Forces operative turned mercenary Wade Wilson, who after being subjected to a rogue experiment that leaves him with accelerated healing powers, adopts the alter ego Deadpool. Armed with his new abilities and a dark, twisted sense of humor, Deadpool hunts down the man who nearly destroyed his life.",
      "release_date": "2016-02-09"
    },
    {
      "vote_count": 613,
      "id": 427641,
      "video": false,
      "vote_average": 5.9,
      "title": "Rampage",
      "popularity": 87.49353,
      "poster_path": "/30oXQKwibh0uANGMs0Sytw3uN22.jpg",
      "original_language": "en",
      "original_title": "Rampage",
      "genre_ids": [
        28,
        12,
        878
      ],
      "backdrop_path": "/wrqUiMXttHE4UBFMhLHlN601MZh.jpg",
      "adult": false,
      "overview": "Primatologist Davis Okoye shares an unshakable bond with George, the extraordinarily intelligent, silverback gorilla who has been in his care since birth.  But a rogue genetic experiment gone awry mutates this gentle ape into a raging creature of enormous size.  To make matters worse, it’s soon discovered there are other similarly altered animals.  As these newly created alpha predators tear across North America, destroying everything in their path, Okoye teams with a discredited genetic engineer to secure an antidote, fighting his way through an ever-changing battlefield, not only to halt a global catastrophe but to save the fearsome creature that was once his friend.",
      "release_date": "2018-04-12"
    },
    {
      "vote_count": 4481,
      "id": 354912,
      "video": false,
      "vote_average": 7.8,
      "title": "Coco",
      "popularity": 86.506482,
      "poster_path": "/eKi8dIrr8voobbaGzDpe8w0PVbC.jpg",
      "original_language": "en",
      "original_title": "Coco",
      "genre_ids": [
        12,
        35,
        10751,
        16
      ],
      "backdrop_path": "/askg3SMvhqEl4OL52YuvdtY40Yb.jpg",
      "adult": false,
      "overview": "Despite his family’s baffling generations-old ban on music, Miguel dreams of becoming an accomplished musician like his idol, Ernesto de la Cruz. Desperate to prove his talent, Miguel finds himself in the stunning and colorful Land of the Dead following a mysterious chain of events. Along the way, he meets charming trickster Hector, and together, they set off on an extraordinary journey to unlock the real story behind Miguel's family history.",
      "release_date": "2017-10-27"
    },
    {
      "vote_count": 7877,
      "id": 198663,
      "video": false,
      "vote_average": 7,
      "title": "The Maze Runner",
      "popularity": 84.755668,
      "poster_path": "/coss7RgL0NH6g4fC2s5atvf3dFO.jpg",
      "original_language": "en",
      "original_title": "The Maze Runner",
      "genre_ids": [
        28,
        9648,
        878,
        53
      ],
      "backdrop_path": "/lkOZcsXcOLZYeJ2YxJd3vSldvU4.jpg",
      "adult": false,
      "overview": "Set in a post-apocalyptic world, young Thomas is deposited in a community of boys after his memory is erased, soon learning they're all trapped in a maze that will require him to join forces with fellow “runners” for a shot at escape.",
      "release_date": "2014-09-10"
    },
    {
      "vote_count": 718,
      "id": 445571,
      "video": false,
      "vote_average": 7,
      "title": "Game Night",
      "popularity": 84.053207,
      "poster_path": "/85R8LMyn9f2Lev2YPBF8Nughrkv.jpg",
      "original_language": "en",
      "original_title": "Game Night",
      "genre_ids": [
        9648,
        35,
        80,
        53
      ],
      "backdrop_path": "/nFQYnpri9kqJ91sG1IfyhukhdrD.jpg",
      "adult": false,
      "overview": "Max and Annie's weekly game night gets kicked up a notch when Max's brother Brooks arranges a murder mystery party -- complete with fake thugs and federal agents. So when Brooks gets kidnapped, it's all supposed to be part of the game. As the competitors set out to solve the case, they start to learn that neither the game nor Brooks are what they seem to be. The friends soon find themselves in over their heads as each twist leads to another unexpected turn over the course of one chaotic night.",
      "release_date": "2018-02-22"
    }
  ]
}